{
    "limit": 30,
    "nodes": [
        {
            "author": "",
            "category": "",
            "description": "ComfyUI nodes to use [a/DepthAnythingV2](https://depth-anything-v2.github.io/)\nNOTE:Models autodownload to ComfyUI/models/depthanything from [a/https://huggingface.co/Kijai/DepthAnythingV2-safetensors/tree/main](https://huggingface.co/Kijai/DepthAnythingV2-safetensors/tree/main)",
            "downloads": 5133,
            "icon": "",
            "id": "comfyui-depthanythingv2",
            "latest_version": {
                "changelog": "",
                "createdAt": "2024-06-28T20:47:05.463478Z",
                "dependencies": [
                    "huggingface_hub",
                    "accelerate"
                ],
                "deprecated": false,
                "downloadUrl": "",
                "id": "6b5da3c8-fd23-4f25-864a-fdd6b44e0248",
                "node_id": "comfyui-depthanythingv2",
                "status": "NodeVersionStatusActive",
                "version": "1.0.1"
            },
            "license": "LICENSE",
            "name": "ComfyUI-DepthAnythingV2",
            "publisher": {
                "createdAt": "2024-06-09T11:11:54.62154Z",
                "description": "",
                "id": "kijai",
                "logo": "",
                "members": [],
                "name": "Kijai",
                "source_code_repo": "",
                "status": "PublisherStatusActive",
                "support": "",
                "website": ""
            },
            "rating": 0,
            "repository": "https://github.com/kijai/ComfyUI-DepthAnythingV2",
            "status": "NodeStatusActive",
            "status_detail": "",
            "tags": []
        },
        {
            "author": "",
            "category": "",
            "description": "AdvancedLivePortrait with Facial expression editor",
            "downloads": 14355,
            "icon": "",
            "id": "comfyui-advancedliveportrait",
            "latest_version": {
                "changelog": "",
                "createdAt": "2024-08-04T11:40:25.53103Z",
                "dependencies": [
                    "numpy>=1.26.4",
                    "opencv-python-headless",
                    "imageio-ffmpeg>=0.5.1",
                    "lmdb>=1.4.1",
                    "timm>=1.0.7",
                    "rich>=13.7.1",
                    "albumentations>=1.4.10",
                    "ultralytics",
                    "tyro==0.8.5",
                    "dill"
                ],
                "deprecated": false,
                "downloadUrl": "",
                "id": "3af921f1-1d97-4bc4-9eae-f50569e907b3",
                "node_id": "comfyui-advancedliveportrait",
                "status": "NodeVersionStatusFlagged",
                "version": "1.0.0"
            },
            "license": "{\"file\": \"LICENSE\"}",
            "name": "ComfyUI-AdvancedLivePortrait",
            "publisher": {
                "createdAt": "2024-08-04T11:01:45.663146Z",
                "description": "",
                "id": "starmapking",
                "logo": "",
                "members": [],
                "name": "PowerHouseMan",
                "source_code_repo": "",
                "status": "PublisherStatusActive",
                "support": "",
                "website": ""
            },
            "rating": 0,
            "repository": "https://github.com/PowerHouseMan/ComfyUI-AdvancedLivePortrait",
            "status": "NodeStatusActive",
            "status_detail": "",
            "tags": []
        },
        {
            "author": "",
            "category": "",
            "description": "Nodes related to video workflows",
            "downloads": 58968,
            "icon": "",
            "id": "comfyui-videohelpersuite",
            "latest_version": {
                "changelog": "",
                "createdAt": "2025-02-07T07:08:46.621276Z",
                "dependencies": [
                    "opencv-python",
                    "imageio-ffmpeg"
                ],
                "deprecated": false,
                "downloadUrl": "",
                "id": "ab651a24-e509-4f5d-aa83-2e8331db488f",
                "node_id": "comfyui-videohelpersuite",
                "status": "NodeVersionStatusPending",
                "version": "1.5.1"
            },
            "license": "{\"file\": \"LICENSE\"}",
            "name": "ComfyUI-VideoHelperSuite",
            "publisher": {
                "createdAt": "2024-05-17T04:30:09.087992Z",
                "description": "",
                "id": "kosinkadink",
                "logo": "",
                "members": [],
                "name": "Kosinkadink",
                "source_code_repo": "",
                "status": "PublisherStatusActive",
                "support": "",
                "website": ""
            },
            "rating": 0,
            "repository": "https://github.com/Kosinkadink/ComfyUI-VideoHelperSuite",
            "status": "",
            "status_detail": "",
            "tags": []
        },
        {
            "author": "",
            "category": "",
            "description": "A set of useful nodes for convenient use of ComfyUI, including: Seed randomization before the generation process starts, with saving of the last used values and the ability to automatically interrupt the current generation; A function to pause the generation process; Slider nodes for convenient control of input parameters; An alternative version of the standard Reroute node.",
            "downloads": 16193,
            "icon": "",
            "id": "comfyui-mxtoolkit",
            "latest_version": {
                "changelog": "",
                "createdAt": "2024-12-08T10:35:42.868537Z",
                "dependencies": [],
                "deprecated": false,
                "downloadUrl": "",
                "id": "ecc9ed8a-c040-4259-a070-a39e41b07a6e",
                "node_id": "comfyui-mxtoolkit",
                "status": "NodeVersionStatusActive",
                "version": "0.9.8"
            },
            "license": "{\"text\": \"GNU General Public License v3.0\"}",
            "name": "ComfyUI-mxToolkit",
            "publisher": {
                "createdAt": "2024-06-19T10:15:21.707898Z",
                "description": "",
                "id": "smirnov",
                "logo": "",
                "members": [],
                "name": "Max Smirnov",
                "source_code_repo": "",
                "status": "PublisherStatusActive",
                "support": "",
                "website": ""
            },
            "rating": 0,
            "repository": "https://github.com/Smirnov75/ComfyUI-mxToolkit",
            "status": "NodeStatusActive",
            "status_detail": "",
            "tags": []
        },
        {
            "author": "",
            "category": "",
            "description": "What is ComfyUI_ZenID?\nInspired by [a/InstantID](https://github.com/instantX-research/InstantID) and [a/InstantID Comfy](https://github.com/cubiq/ComfyUI_InstantID) This ZenID Node has been refactored for specialized tasks like Face Swap",
            "downloads": 3620,
            "icon": "",
            "id": "comfyui_zenid",
            "latest_version": {
                "changelog": "",
                "createdAt": "2024-11-16T05:25:35.058413Z",
                "dependencies": [],
                "deprecated": true,
                "downloadUrl": "",
                "id": "eef24f45-bec7-44d2-b71d-02f7ae62587e",
                "node_id": "comfyui_zenid",
                "status": "NodeVersionStatusFlagged",
                "version": "1.0.0"
            },
            "license": "{\"file\": \"LICENSE\"}",
            "name": "ComfyUI_ZenID",
            "publisher": {
                "createdAt": "2024-11-16T05:00:16.979745Z",
                "description": "",
                "id": "vuongminh1907",
                "logo": "",
                "members": [],
                "name": "Vuong Minh",
                "source_code_repo": "",
                "status": "PublisherStatusActive",
                "support": "",
                "website": ""
            },
            "rating": 0,
            "repository": "https://github.com/vuongminh1907/ComfyUI_ZenID",
            "status": "NodeStatusActive",
            "status_detail": "",
            "tags": []
        },
        {
            "author": "",
            "category": "",
            "description": "ComfyUI nodes for the Ultimate Stable Diffusion Upscale script by Coyote-A.",
            "downloads": 20040,
            "icon": "",
            "id": "comfyui_ultimatesdupscale",
            "latest_version": {
                "changelog": "",
                "createdAt": "2024-10-08T04:29:45.879151Z",
                "dependencies": [],
                "deprecated": false,
                "downloadUrl": "",
                "id": "a33d3e2e-0cb0-4d16-901f-2ed0ca1d2983",
                "node_id": "comfyui_ultimatesdupscale",
                "status": "NodeVersionStatusFlagged",
                "version": "1.0.0"
            },
            "license": "{\"text\": \"LICENSE\"}",
            "name": "ComfyUI_UltimateSDUpscale",
            "publisher": {
                "createdAt": "2024-08-18T05:32:31.510976Z",
                "description": "",
                "id": "ssit",
                "logo": "",
                "members": [],
                "name": "ssit",
                "source_code_repo": "",
                "status": "PublisherStatusActive",
                "support": "",
                "website": ""
            },
            "rating": 0,
            "repository": "https://github.com/ssitu/ComfyUI_UltimateSDUpscale",
            "status": "NodeStatusActive",
            "status_detail": "",
            "tags": []
        },
        {
            "author": "",
            "category": "",
            "description": "This extension integrates [a/MV-Adapter](https://github.com/huanngzh/MV-Adapter) into ComfyUI, allowing users to generate multi-view consistent images from text prompts or single images directly within the ComfyUI interface.",
            "downloads": 5972,
            "icon": "",
            "id": "comfyui-mvadapter",
            "latest_version": {
                "changelog": "",
                "createdAt": "2024-12-21T03:22:00.367206Z",
                "dependencies": [
                    "torch>=2.1.1",
                    "torchvision>=0.16.1",
                    "diffusers>=0.31.0",
                    "transformers>=4.46.3",
                    "peft",
                    "numpy>=1.26.2",
                    "huggingface_hub>=0.24.6",
                    "accelerate>=1.1.1",
                    "opencv-python",
                    "safetensors",
                    "pillow",
                    "omegaconf",
                    "trimesh",
                    "einops",
                    "timm",
                    "kornia",
                    "scikit-image"
                ],
                "deprecated": false,
                "downloadUrl": "",
                "id": "bbc719ba-2dd8-4855-bf62-06068484ff8d",
                "node_id": "comfyui-mvadapter",
                "status": "NodeVersionStatusFlagged",
                "version": "1.0.0"
            },
            "license": "{\"file\": \"LICENSE\"}",
            "name": "ComfyUI-MVAdapter",
            "publisher": {
                "createdAt": "2024-12-21T02:56:48.907293Z",
                "description": "",
                "id": "huanngzh",
                "logo": "",
                "members": [],
                "name": "Zehuan Huang",
                "source_code_repo": "",
                "status": "PublisherStatusActive",
                "support": "",
                "website": ""
            },
            "rating": 0,
            "repository": "https://github.com/huanngzh/ComfyUI-MVAdapter",
            "status": "NodeStatusActive",
            "status_detail": "",
            "tags": []
        }
    ],
    "page": 33,
    "total": 967,
    "totalPages": 33
}